:)
gcc -g   -c -o LR0.o LR0.c
gcc -g   -c -o allocate.o allocate.c
gcc -g   -c -o closure.o closure.c
gcc -g   -c -o conflicts.o conflicts.c
gcc -g   -c -o derives.o derives.c
gcc -c -g -DXPFILE=\"bison1.simple\" -DXPFILE1=\"bison1.hairy\" files.c
gcc -g   -c -o getargs.o getargs.c
gcc -g   -c -o gram.o gram.c
gcc -g   -c -o lalr.o lalr.c
gcc -g   -c -o lex.o lex.c
gcc -g   -c -o main.o main.c
gcc -g   -c -o nullable.o nullable.c
gcc -g   -c -o output.o output.c
gcc -g   -c -o print.o print.c
gcc -g   -c -o reader.o reader.c
gcc -g   -c -o symtab.o symtab.c
gcc -g   -c -o warshall.o warshall.c
gcc  -o bison1 LR0.o allocate.o closure.o conflicts.o derives.o files.o getargs.o gram.o lalr.o lex.o main.o nullable.o output.o print.o reader.o symtab.o warshall.o
/usr/bin/ld: files.o: in function `openfiles':
/home/gold/notabug/gnu1987/bison-1.00-recompiled/files.c:173: warning: the use of `mktemp' is dangerous, better use `mkstemp' or `mkdtemp'
end of make
